Effective Data Science - 4 Tabular Data
…
Output is a data.frame object. (List of vectors with some nice methods)

4.1.2 {readr}

random_tbl <- readr::read_csv(file = 'random-data.csv')
#> Rows: 26 Columns: 4
#> ── Column specification ─────────────────────────────────────────────────────
#> Delimiter: ","
#> chr (1): id
#> dbl (3): gaussian, gamma, uniform
#> 
#> ℹ Use `spec()` to retrieve the full column specification for this data.
#> ℹ Specify the column types or set `show_col_types = FALSE` to quiet this message.
print(random_tbl)
#> # A tibble: 26 × 4
#>   id    gaussian  gamma uniform
#>   <chr>    <dbl>  <dbl>   <dbl>
#> 1 a       -1.21  0.989   0.225 
#> 2 b        0.277 0.0381  0.0850
#> 3 c        1.08  1.09    0.637 
#> 4 d       -2.35  1.49    0.431 
#> 5 e        0.429 5.40    0.0727
#> 6 f        0.506 1.72    0.802 
#> # ℹ 20 more rows
…
No row names and nice column names.

Reproducibility bonus: does not depend on operating system.

4.1.3 WTF: Tibbles

4.1.3.1 Printing

Default to first 10 rows and as many columns as will comfortably fit on your screen.

Can adjust this behaviour in the print call:

# print first three rows and all columns
print(random_tbl, n = 3, width = Inf)
#> # A tibble: 26 × 4
#>   id    gaussian  gamma uniform
#>   <chr>    <dbl>  <dbl>   <dbl>
#> 1 a       -1.21  0.989   0.225 
#> 2 b        0.277 0.0381  0.0850
#> 3 c        1.08  1.09    0.637 
#> # ℹ 23 more rows
…
