Effective Data Science - 5 Web Scraping
…
Applying this to our real scraped data we can easily extract the table of taught courses.

html %>% 
  html_element("table") %>% 
  html_table()
#> # A tibble: 31 × 3
#>   Year      Course                                     Role    
#>   <chr>     <chr>                                      <chr>   
#> 1 "2022-23" Data Science                               Lecturer
#> 2 ""        Ethics in Data Science I, II and III       Lecturer
#> 3 ""        Data Ethics for Digital Chemistry          Lecturer
#> 4 ""        Y1 research projects: point process models Lecturer
#> 5 "2021-22" Supervised Learning                        Lecturer
#> 6 ""        Ethics in Data Science I                   Lecturer
#> # ℹ 25 more rows
…
