Effective Data Science - 7 Data Wrangling
…
7.5.1 Base R

In base R you can extract rows, columns and combinations thereof using index notation.

# First row
penguins[1, ]
#> # A tibble: 1 × 8
#>   species island   bill_length_mm bill_depth_mm flipper_length_mm body_mass_g
#>   <fct>   <fct>             <dbl>         <dbl>             <int>       <int>
#> 1 Adelie  Torgers…           39.1          18.7               181        3750
#> # ℹ 2 more variables: sex <fct>, year <int>

# First Column 
penguins[ , 1]
#> # A tibble: 344 × 1
#>   species
#>   <fct>  
#> 1 Adelie 
#> 2 Adelie 
#> 3 Adelie 
#> 4 Adelie 
#> 5 Adelie 
#> 6 Adelie 
#> # ℹ 338 more rows
…
Using negative indexing you can remove rows or columns

# Drop all but first row
penguins[-(2:344), ]
#> # A tibble: 1 × 8
#>   species island   bill_length_mm bill_depth_mm flipper_length_mm body_mass_g
#>   <fct>   <fct>             <dbl>         <dbl>             <int>       <int>
#> 1 Adelie  Torgers…           39.1          18.7               181        3750
#> # ℹ 2 more variables: sex <fct>, year <int>

# Drop all but first column 
penguins[ , -(2:8)]
#> # A tibble: 344 × 1
#>   species
#>   <fct>  
#> 1 Adelie 
#> 2 Adelie 
#> 3 Adelie 
#> 4 Adelie 
#> 5 Adelie 
#> 6 Adelie 
#> # ℹ 338 more rows

You can also select rows or columns by their names. This can be done using the bracket syntax ([ ]) or the dollar syntax ($).

pengins[ , "species"]
#> # A tibble: 344 × 1
#>   species
#>   <fct>  
#> 1 Adelie 
#> 2 Adelie 
#> 3 Adelie 
#> 4 Adelie 
#> 5 Adelie 
#> 6 Adelie 
#> # ℹ 338 more rows
…
Since penguins is a tibble, these return different types of object. Subsetting a tibble with bracket syntax will return a tibble, while extracting a column using the dollar syntax returns a vector of values.

7.5.2 filter() and select()

{dplyr} has two functions for subsetting, filter() subsets by rows and select() subsets by column.

In both functions you list what you would like to retain. Filter and select calls can be piped together to subset based on row and column values.

penguins %>% 
  select(species, island, body_mass_g)
#> # A tibble: 344 × 3
#>   species island    body_mass_g
#>   <fct>   <fct>           <int>
#> 1 Adelie  Torgersen        3750
#> 2 Adelie  Torgersen        3800
#> 3 Adelie  Torgersen        3250
#> 4 Adelie  Torgersen          NA
#> 5 Adelie  Torgersen        3450
#> 6 Adelie  Torgersen        3650
#> # ℹ 338 more rows
penguins %>% 
  select(species, island, body_mass_g) %>% 
  filter(body_mass_g > 6000)
#> # A tibble: 2 × 3
#>   species island body_mass_g
#>   <fct>   <fct>        <int>
#> 1 Gentoo  Biscoe        6300
#> 2 Gentoo  Biscoe        6050

Subsetting rows can be inverted by negating the filter() statement

penguins %>% 
  select(species, island, body_mass_g) %>% 
  filter(!(body_mass_g > 6000))
#> # A tibble: 340 × 3
#>   species island    body_mass_g
#>   <fct>   <fct>           <int>
#> 1 Adelie  Torgersen        3750
#> 2 Adelie  Torgersen        3800
#> 3 Adelie  Torgersen        3250
#> 4 Adelie  Torgersen        3450
#> 5 Adelie  Torgersen        3650
#> 6 Adelie  Torgersen        3625
#> # ℹ 334 more rows

and dropping columns can done by selecting all columns except the one(s) you want to drop.

#> # A tibble: 340 × 1
#>   body_mass_g
#>         <int>
#> 1        3750
#> 2        3800
#> 3        3250
#> 4        3450
#> 5        3650
#> 6        3625
#> # ℹ 334 more rows
…
tshirts %>% group_by(size) %>% summarise(count = n())
#> # A tibble: 6 × 2
#>   size  count
#>   <fct> <int>
#> 1 L         3
#> 2 M         3
#> 3 S         2
#> 4 XS        2
#> 5 XXL       1
#> 6 <NA>      1

We can fix this by creating a new variable with the factors explicitly coded in the correct order. We also need to specify that we should not drop empty groups as part of group_by().

#> # A tibble: 7 × 2
#>   size_tidy count
#>   <fct>     <int>
#> 1 XS            2
#> 2 S             2
#> 3 M             3
#> 4 L             3
#> 5 XL            0
#> 6 XXL           1
#> # ℹ 1 more row
…
